…
symbol_load <-  data.frame(symbol = ticker_other) %>% 
  left_join(dbGetQuery(con, ("select * from db001.load.symbol_name")) %>%
  select(symbol, company_name, market_cap, beta, price, last_annual_dividend, exchange_short_name, country), 
  by = 'symbol')%>%
  mutate(symbol_name = paste0(symbol,'_',company_name), rowid = row_number()) %>%
  mutate(row_group = as.factor(rowid%%3)) %>%
  group_by(row_group) %>%
  mutate(rowid = as.factor(row_number())) %>%
  ungroup()

symbol_load %>% 
  filter(!is.na(market_cap)) %>%
  arrange(desc(market_cap))
## # A tibble: 72 × 11
##    symbol company_name  market_cap  beta price last_annual_div… exchange_short_…
##    <chr>  <chr>              <dbl> <dbl> <dbl>            <dbl> <chr>           
##  1 JJA    iPath Series…    2.76e10     0  24.5            0     AMEX            
##  2 ATMP   Barclays ETN…    2.08e10     0  17.8            0.915 AMEX            
##  3 GUSH   Direxion Dai…    1.58e10     0 113.             0.066 AMEX            
##  4 XLE    Energy Selec…    1.28e10     0  68.8            2.34  AMEX            
##  5 TAGS   Teucrium Agr…    1.09e10     0  28.6            0     AMEX            
##  6 AMLP   Alerian MLP …    9.26e 9     0  38.2            2.8   AMEX            
##  7 XOP    SPDR S&P Oil…    7.75e 9     0 110.             1.54  AMEX            
##  8 VDE    Vanguard Ene…    3.97e 9     0  95.0            3.21  AMEX            
##  9 AMJ    JPMorgan Ale…    3.07e 9     0  20.7            1.30  AMEX            
## 10 EMLP   First Trust …    2.45e 9     0  25.8            0.821 AMEX            
## # … with 62 more rows, and 4 more variables: country <chr>, symbol_name <chr>,
## #   rowid <fct>, row_group <fct>
…
ticker_other_annual_return <- ticker_other_df %>%
  group_by(symbol) %>%
  tq_transmute(select = close, 
                 mutate_fun = periodReturn, 
                 period = "yearly", 
                 type = "arithmetic", 
               col_rename = 'return_annual')

ticker_other_annual_return
## # A tibble: 555 × 3
## # Groups:   symbol [78]
##    symbol date       return_annual
##    <chr>  <date>             <dbl>
##  1 DBA    2015-12-31       -0.0636
##  2 DBA    2016-12-30       -0.0311
##  3 DBA    2017-12-29       -0.0606
##  4 DBA    2018-12-31       -0.0970
##  5 DBA    2019-12-31       -0.0224
##  6 DBA    2020-12-31       -0.0254
##  7 DBA    2021-12-31        0.224 
##  8 DBA    2022-04-01        0.101 
##  9 WEAT   2015-12-31       -0.113 
## 10 WEAT   2016-12-30       -0.247 
## # … with 545 more rows

ticker_other_monthly_return <- ticker_other_df %>%
  group_by(symbol) %>%
  tq_transmute(select = close, 
                 mutate_fun = periodReturn, 
                 period = "monthly", 
                 type = "arithmetic", 
               col_rename = 'return_monthly')

ticker_other_monthly_return
## # A tibble: 5,568 × 3
## # Groups:   symbol [78]
##    symbol date       return_monthly
##    <chr>  <date>              <dbl>
##  1 DBA    2015-06-30        0.0609 
##  2 DBA    2015-07-31       -0.0809 
##  3 DBA    2015-08-31       -0.0270 
##  4 DBA    2015-09-30        0      
##  5 DBA    2015-10-30        0.0192 
##  6 DBA    2015-11-30       -0.0362 
##  7 DBA    2015-12-31        0.00488
##  8 DBA    2016-01-29       -0.0301 
##  9 DBA    2016-02-29       -0.00100
## 10 DBA    2016-03-31        0.0315 
## # … with 5,558 more rows
…
spy_monthly_return <- spy_df %>%
  group_by(symbol) %>%
  tq_transmute(select = close, 
                 mutate_fun = periodReturn, 
                 period = "monthly", 
                 type = "arithmetic", 
               col_rename = 'spy_return_monthly')

spy_monthly_return
## # A tibble: 52 × 3
## # Groups:   symbol [1]
##    symbol date                spy_return_monthly
##    <chr>  <dttm>                           <dbl>
##  1 SPY    2018-01-31 00:00:00            0.0489 
##  2 SPY    2018-02-28 00:00:00           -0.0364 
##  3 SPY    2018-03-29 00:00:00           -0.0313 
##  4 SPY    2018-04-30 00:00:00            0.00517
##  5 SPY    2018-05-31 00:00:00            0.0243 
##  6 SPY    2018-06-29 00:00:00            0.00125
##  7 SPY    2018-07-31 00:00:00            0.0370 
##  8 SPY    2018-08-31 00:00:00            0.0319 
##  9 SPY    2018-09-28 00:00:00            0.00141
## 10 SPY    2018-10-31 00:00:00           -0.0691 
## # … with 42 more rows
…
